examples/uvmsc/integrated/ubus/msvc16/traces_sc.vcd
$date
     Mar 10, 2025       18:51:38
$end

$version
 SystemC 3.0.2-Accellera --- Mar 10 2025 18:37:46
$end

$timescale
     1 ps
$end

$scope module SystemC $end
$var wire    1  aaaaa  vif->sig_request_0       $end
$var wire    1  aaaab  vif->sig_grant_0       $end
$var wire    1  aaaac  vif->sig_request_1       $end
$var wire    1  aaaad  vif->sig_grant_1       $end
$var wire    1  aaaae  vif->sig_clock       $end
$var wire    1  aaaaf  vif->sig_reset       $end
$var wire   16  aaaag  vif->sig_addr [15:0]  $end
$var wire    2  aaaah  vif->sig_size [1:0]  $end
$var wire    1  aaaai  vif->sig_read       $end
$var wire    1  aaaaj  vif->sig_write       $end
$var wire    1  aaaak  vif->sig_start       $end
$var wire    1  aaaal  vif->sig_bip       $end
$var wire    8  aaaam  vif->sig_data [7:0]  $end
$var wire    1  aaaan  vif->sig_wait       $end
$var wire    1  aaaao  vif->sig_error       $end
$var wire    1  aaaap  vif->rw       $end
$upscope $end
$enddefinitions  $end

$comment
All initial values are dumped below at time 0 sec = 0 timescale units.
$end

$dumpvars
0aaaaa
0aaaab
0aaaac
0aaaad
1aaaae
1aaaaf
bZZZZZZZZZZZZZZZZ aaaag
bZZ aaaah
zaaaai
zaaaaj
0aaaak
zaaaal
bZZZZZZZZ aaaam
zaaaan
zaaaao
0aaaap
$end

#5000
0aaaae

#10000
1aaaae

#15000
0aaaae

#20000
1aaaae

#25000
0aaaae

#30000
1aaaae

#35000
0aaaae

#40000
1aaaae

#45000
0aaaae

#50000
1aaaae

#51000
0aaaaf

#55000
0aaaae

#60000
1aaaaa
1aaaac
1aaaae
1aaaak

#65000
1aaaab
0aaaae

#70000
0aaaaa
1aaaae
b1000100010001 aaaag
b0 aaaah
1aaaai
0aaaaj
0aaaak

#75000
0aaaab
0aaaae

#80000
1aaaae
bZZZZZZZZZZZZZZZZ aaaag
bZZ aaaah
zaaaai
zaaaaj
0aaaal
b11100010 aaaam
1aaaan
0aaaao
xaaaap

#85000
0aaaae

#90000
1aaaae

#95000
0aaaae

#100000
1aaaae
0aaaan

#105000
0aaaae

#110000
1aaaae
1aaaak
zaaaal
bZZZZZZZZ aaaam
zaaaan
zaaaao
0aaaap

#115000
1aaaad
0aaaae

#120000
1aaaaa
0aaaac
1aaaae
b1000100010001 aaaag
b0 aaaah
1aaaai
0aaaaj
0aaaak

#125000
0aaaad
0aaaae

#130000
1aaaae
bZZZZZZZZZZZZZZZZ aaaag
bZZ aaaah
zaaaai
zaaaaj
0aaaal
b11100010 aaaam
1aaaan
0aaaao
xaaaap

#135000
0aaaae

#140000
1aaaae

#145000
0aaaae

#150000
1aaaae
0aaaan

#155000
0aaaae

#160000
1aaaae
1aaaak
zaaaal
bZZZZZZZZ aaaam
zaaaan
zaaaao
0aaaap

#165000
1aaaab
0aaaae

#170000
0aaaaa
1aaaac
1aaaae
b1000100010001 aaaag
b0 aaaah
0aaaai
1aaaaj
0aaaak

#175000
0aaaab
0aaaae

#180000
1aaaae
bZZZZZZZZZZZZZZZZ aaaag
bZZ aaaah
zaaaai
zaaaaj
0aaaal
b11100011 aaaam
1aaaan
0aaaao
xaaaap

#185000
0aaaae

#190000
1aaaae

#195000
0aaaae

#200000
1aaaae
0aaaan

#205000
0aaaae

#210000
1aaaae
1aaaak
zaaaal
bZZZZZZZZ aaaam
zaaaan
zaaaao
0aaaap

#215000
1aaaad
0aaaae

#220000
1aaaaa
0aaaac
1aaaae
b1000100010001 aaaag
b0 aaaah
0aaaai
1aaaaj
0aaaak

#225000
0aaaad
0aaaae

#230000
1aaaae
bZZZZZZZZZZZZZZZZ aaaag
bZZ aaaah
zaaaai
zaaaaj
0aaaal
b11100011 aaaam
1aaaan
0aaaao
xaaaap

#235000
0aaaae

#240000
1aaaae

#245000
0aaaae

#250000
1aaaae
0aaaan

#255000
0aaaae

#260000
1aaaae
1aaaak
zaaaal
bZZZZZZZZ aaaam
zaaaan
zaaaao
0aaaap

#265000
1aaaab
0aaaae

#270000
0aaaaa
1aaaac
1aaaae
b1000100010001 aaaag
b0 aaaah
1aaaai
0aaaaj
0aaaak

#275000
0aaaab
0aaaae

#280000
1aaaae
bZZZZZZZZZZZZZZZZ aaaag
bZZ aaaah
zaaaai
zaaaaj
0aaaal
b11100011 aaaam
1aaaan
0aaaao
xaaaap

#285000
0aaaae

#290000
1aaaae

#295000
0aaaae

#300000
1aaaae
0aaaan

#305000
0aaaae

#310000
1aaaae
1aaaak
zaaaal
bZZZZZZZZ aaaam
zaaaan
zaaaao
0aaaap

#315000
1aaaad
0aaaae

#320000
1aaaaa
0aaaac
1aaaae
b1000100010001 aaaag
b0 aaaah
1aaaai
0aaaaj
0aaaak

#325000
0aaaad
0aaaae

#330000
1aaaae
bZZZZZZZZZZZZZZZZ aaaag
bZZ aaaah
zaaaai
zaaaaj
0aaaal
b11100011 aaaam
1aaaan
0aaaao
xaaaap

#335000
0aaaae

#340000
1aaaae

#345000
0aaaae

#350000
1aaaae
0aaaan

#355000
0aaaae

#360000
1aaaae
1aaaak
zaaaal
bZZZZZZZZ aaaam
zaaaan
zaaaao
0aaaap

#365000
1aaaab
0aaaae

#370000
0aaaaa
1aaaac
1aaaae
b1000100010001 aaaag
b0 aaaah
1aaaai
0aaaaj
0aaaak

#375000
0aaaab
0aaaae

#380000
1aaaae
bZZZZZZZZZZZZZZZZ aaaag
bZZ aaaah
zaaaai
zaaaaj
0aaaal
b11100011 aaaam
1aaaan
0aaaao
xaaaap

#385000
0aaaae

#390000
1aaaae

#395000
0aaaae

#400000
1aaaae
0aaaan

#405000
0aaaae

#410000
1aaaae
1aaaak
zaaaal
bZZZZZZZZ aaaam
zaaaan
zaaaao
0aaaap

#415000
1aaaad
0aaaae

#420000
1aaaaa
0aaaac
1aaaae
b1000100010001 aaaag
b0 aaaah
1aaaai
0aaaaj
0aaaak

#425000
0aaaad
0aaaae

#430000
1aaaae
bZZZZZZZZZZZZZZZZ aaaag
bZZ aaaah
zaaaai
zaaaaj
0aaaal
b11100011 aaaam
1aaaan
0aaaao
xaaaap

#435000
0aaaae

#440000
1aaaae

#445000
0aaaae

#450000
1aaaae
0aaaan

#455000
0aaaae

#460000
1aaaae
1aaaak
zaaaal
bZZZZZZZZ aaaam
zaaaan
zaaaao
0aaaap

#465000
1aaaab
0aaaae

#470000
0aaaaa
1aaaac
1aaaae
b1000100010001 aaaag
b0 aaaah
0aaaai
1aaaaj
0aaaak

#475000
0aaaab
0aaaae

#480000
1aaaae
bZZZZZZZZZZZZZZZZ aaaag
bZZ aaaah
zaaaai
zaaaaj
0aaaal
b11100100 aaaam
1aaaan
0aaaao
xaaaap

#485000
0aaaae

#490000
1aaaae

#495000
0aaaae

#500000
1aaaae
0aaaan

#505000
0aaaae

#510000
1aaaae
1aaaak
zaaaal
bZZZZZZZZ aaaam
zaaaan
zaaaao
0aaaap

#515000
1aaaad
0aaaae

#520000
1aaaaa
0aaaac
1aaaae
b1000100010001 aaaag
b0 aaaah
0aaaai
1aaaaj
0aaaak

#525000
0aaaad
0aaaae

#530000
1aaaae
bZZZZZZZZZZZZZZZZ aaaag
bZZ aaaah
zaaaai
zaaaaj
0aaaal
b11100100 aaaam
1aaaan
0aaaao
xaaaap

#535000
0aaaae

#540000
1aaaae

#545000
0aaaae

#550000
1aaaae
0aaaan

#555000
0aaaae

#560000
1aaaae
1aaaak
zaaaal
bZZZZZZZZ aaaam
zaaaan
zaaaao
0aaaap

#565000
1aaaab
0aaaae

#570000
0aaaaa
1aaaac
1aaaae
b1000100010001 aaaag
b0 aaaah
1aaaai
0aaaaj
0aaaak

#575000
0aaaab
0aaaae

#580000
1aaaae
bZZZZZZZZZZZZZZZZ aaaag
bZZ aaaah
zaaaai
zaaaaj
0aaaal
b11100100 aaaam
1aaaan
0aaaao
xaaaap

#585000
0aaaae

#590000
1aaaae

#595000
0aaaae

#600000
1aaaae
0aaaan

#605000
0aaaae

#610000
1aaaae
1aaaak
zaaaal
bZZZZZZZZ aaaam
zaaaan
zaaaao
0aaaap

#615000
1aaaad
0aaaae

#620000
1aaaaa
0aaaac
1aaaae
b1000100010001 aaaag
b0 aaaah
1aaaai
0aaaaj
0aaaak

#625000
0aaaad
0aaaae

#630000
1aaaae
bZZZZZZZZZZZZZZZZ aaaag
bZZ aaaah
zaaaai
zaaaaj
0aaaal
b11100100 aaaam
1aaaan
0aaaao
xaaaap

#635000
0aaaae

#640000
1aaaae

#645000
0aaaae

#650000
1aaaae
0aaaan

#655000
0aaaae

#660000
1aaaae
1aaaak
zaaaal
bZZZZZZZZ aaaam
zaaaan
zaaaao
0aaaap

#665000
1aaaab
0aaaae

#670000
0aaaaa
1aaaac
1aaaae
b1000100010001 aaaag
b0 aaaah
1aaaai
0aaaaj
0aaaak

#675000
0aaaab
0aaaae

#680000
1aaaae
bZZZZZZZZZZZZZZZZ aaaag
bZZ aaaah
zaaaai
zaaaaj
0aaaal
b11100100 aaaam
1aaaan
0aaaao
xaaaap

#685000
0aaaae

#690000
1aaaae

#695000
0aaaae

#700000
1aaaae
0aaaan

#705000
0aaaae

#710000
1aaaae
1aaaak
zaaaal
bZZZZZZZZ aaaam
zaaaan
zaaaao
0aaaap

#715000
1aaaad
0aaaae

#720000
1aaaaa
0aaaac
1aaaae
b1000100010001 aaaag
b0 aaaah
1aaaai
0aaaaj
0aaaak

#725000
0aaaad
0aaaae

#730000
1aaaae
bZZZZZZZZZZZZZZZZ aaaag
bZZ aaaah
zaaaai
zaaaaj
0aaaal
b11100100 aaaam
1aaaan
0aaaao
xaaaap

#735000
0aaaae

#740000
1aaaae

#745000
0aaaae

#750000
1aaaae
0aaaan

#755000
0aaaae

#760000
1aaaae
1aaaak
zaaaal
bZZZZZZZZ aaaam
zaaaan
zaaaao
0aaaap

#765000
1aaaab
0aaaae

#770000
0aaaaa
1aaaac
1aaaae
b1000100010001 aaaag
b0 aaaah
0aaaai
1aaaaj
0aaaak

#775000
0aaaab
0aaaae

#780000
1aaaae
bZZZZZZZZZZZZZZZZ aaaag
bZZ aaaah
zaaaai
zaaaaj
0aaaal
b11100101 aaaam
1aaaan
0aaaao
xaaaap

#785000
0aaaae

#790000
1aaaae

#795000
0aaaae

#800000
1aaaae
0aaaan

#805000
0aaaae

#810000
1aaaae
1aaaak
zaaaal
bZZZZZZZZ aaaam
zaaaan
zaaaao
0aaaap

#815000
1aaaad
0aaaae

#820000
1aaaaa
0aaaac
1aaaae
b1000100010001 aaaag
b0 aaaah
0aaaai
1aaaaj
0aaaak

#825000
0aaaad
0aaaae

#830000
1aaaae
bZZZZZZZZZZZZZZZZ aaaag
bZZ aaaah
zaaaai
zaaaaj
0aaaal
b11100101 aaaam
1aaaan
0aaaao
xaaaap

#835000
0aaaae

#840000
1aaaae

#845000
0aaaae

#850000
1aaaae
0aaaan

#855000
0aaaae

#860000
1aaaae
1aaaak
zaaaal
bZZZZZZZZ aaaam
zaaaan
zaaaao
0aaaap

#865000
1aaaab
0aaaae

#870000
0aaaaa
1aaaac
1aaaae
b1000100010001 aaaag
b0 aaaah
1aaaai
0aaaaj
0aaaak

#875000
0aaaab
0aaaae

#880000
1aaaae
bZZZZZZZZZZZZZZZZ aaaag
bZZ aaaah
zaaaai
zaaaaj
0aaaal
b11100101 aaaam
1aaaan
0aaaao
xaaaap

#885000
0aaaae

#890000
1aaaae

#895000
0aaaae

#900000
1aaaae
0aaaan

#905000
0aaaae

#910000
1aaaae
1aaaak
zaaaal
bZZZZZZZZ aaaam
zaaaan
zaaaao
0aaaap

#915000
1aaaad
0aaaae

#920000
1aaaaa
0aaaac
1aaaae
b1000100010001 aaaag
b0 aaaah
1aaaai
0aaaaj
0aaaak

#925000
0aaaad
0aaaae

#930000
1aaaae
bZZZZZZZZZZZZZZZZ aaaag
bZZ aaaah
zaaaai
zaaaaj
0aaaal
b11100101 aaaam
1aaaan
0aaaao
xaaaap

#935000
0aaaae

#940000
1aaaae

#945000
0aaaae

#950000
1aaaae
0aaaan

#955000
0aaaae

#960000
1aaaae
1aaaak
zaaaal
bZZZZZZZZ aaaam
zaaaan
zaaaao
0aaaap

#965000
1aaaab
0aaaae

#970000
0aaaaa
1aaaac
1aaaae
b1000100010001 aaaag
b0 aaaah
1aaaai
0aaaaj
0aaaak

#975000
0aaaab
0aaaae

#980000
1aaaae
bZZZZZZZZZZZZZZZZ aaaag
bZZ aaaah
zaaaai
zaaaaj
0aaaal
b11100101 aaaam
1aaaan
0aaaao
xaaaap

#985000
0aaaae

#990000
1aaaae

#995000
0aaaae

#1000000
1aaaae
0aaaan

#1005000
0aaaae

#1010000
1aaaae
1aaaak
zaaaal
bZZZZZZZZ aaaam
zaaaan
zaaaao
0aaaap

#1015000
1aaaad
0aaaae

#1020000
1aaaaa
0aaaac
1aaaae
b1000100010001 aaaag
b0 aaaah
1aaaai
0aaaaj
0aaaak

#1025000
0aaaad
0aaaae

#1030000
1aaaae
bZZZZZZZZZZZZZZZZ aaaag
bZZ aaaah
zaaaai
zaaaaj
0aaaal
b11100101 aaaam
1aaaan
0aaaao
xaaaap

#1035000
0aaaae

#1040000
1aaaae

#1045000
0aaaae

#1050000
1aaaae
0aaaan

#1055000
0aaaae

#1060000
1aaaae
1aaaak
zaaaal
bZZZZZZZZ aaaam
zaaaan
zaaaao
0aaaap

#1065000
1aaaab
0aaaae

#1070000
0aaaaa
1aaaac
1aaaae
b1000100010001 aaaag
b0 aaaah
0aaaai
1aaaaj
0aaaak

#1075000
0aaaab
0aaaae

#1080000
1aaaae
bZZZZZZZZZZZZZZZZ aaaag
bZZ aaaah
zaaaai
zaaaaj
0aaaal
b11100110 aaaam
1aaaan
0aaaao
xaaaap

#1085000
0aaaae

#1090000
1aaaae

#1095000
0aaaae

#1100000
1aaaae
0aaaan

#1105000
0aaaae

#1110000
1aaaae
1aaaak
zaaaal
bZZZZZZZZ aaaam
zaaaan
zaaaao
0aaaap

#1115000
1aaaad
0aaaae

#1120000
1aaaaa
0aaaac
1aaaae
b1000100010001 aaaag
b0 aaaah
0aaaai
1aaaaj
0aaaak

#1125000
0aaaad
0aaaae

#1130000
1aaaae
bZZZZZZZZZZZZZZZZ aaaag
bZZ aaaah
zaaaai
zaaaaj
0aaaal
b11100110 aaaam
1aaaan
0aaaao
xaaaap

#1135000
0aaaae

#1140000
1aaaae

#1145000
0aaaae

#1150000
1aaaae
0aaaan

#1155000
0aaaae

#1160000
1aaaae
1aaaak
zaaaal
bZZZZZZZZ aaaam
zaaaan
zaaaao
0aaaap

#1165000
1aaaab
0aaaae

#1170000
0aaaaa
1aaaac
1aaaae
b1000100010001 aaaag
b0 aaaah
1aaaai
0aaaaj
0aaaak

#1175000
0aaaab
0aaaae

#1180000
1aaaae
bZZZZZZZZZZZZZZZZ aaaag
bZZ aaaah
zaaaai
zaaaaj
0aaaal
b11100110 aaaam
1aaaan
0aaaao
xaaaap

#1185000
0aaaae

#1190000
1aaaae

#1195000
0aaaae

#1200000
1aaaae
0aaaan

#1205000
0aaaae

#1210000
1aaaae
1aaaak
zaaaal
bZZZZZZZZ aaaam
zaaaan
zaaaao
0aaaap

#1215000
1aaaad
0aaaae

#1220000
1aaaaa
0aaaac
1aaaae
b1000100010001 aaaag
b0 aaaah
1aaaai
0aaaaj
0aaaak

#1225000
0aaaad
0aaaae

#1230000
1aaaae
bZZZZZZZZZZZZZZZZ aaaag
bZZ aaaah
zaaaai
zaaaaj
0aaaal
b11100110 aaaam
1aaaan
0aaaao
xaaaap

#1235000
0aaaae

#1240000
1aaaae

#1245000
0aaaae

#1250000
1aaaae
0aaaan

#1255000
0aaaae

#1260000
1aaaae
1aaaak
zaaaal
bZZZZZZZZ aaaam
zaaaan
zaaaao
0aaaap

#1265000
1aaaab
0aaaae

#1270000
0aaaaa
1aaaac
1aaaae
b1000100010001 aaaag
b0 aaaah
1aaaai
0aaaaj
0aaaak

#1275000
0aaaab
0aaaae

#1280000
1aaaae
bZZZZZZZZZZZZZZZZ aaaag
bZZ aaaah
zaaaai
zaaaaj
0aaaal
b11100110 aaaam
1aaaan
0aaaao
xaaaap

#1285000
0aaaae

#1290000
1aaaae

#1295000
0aaaae

#1300000
1aaaae
0aaaan

#1305000
0aaaae

#1310000
1aaaae
1aaaak
zaaaal
bZZZZZZZZ aaaam
zaaaan
zaaaao
0aaaap

#1315000
1aaaad
0aaaae

#1320000
1aaaaa
0aaaac
1aaaae
b1000100010001 aaaag
b0 aaaah
1aaaai
0aaaaj
0aaaak

#1325000
0aaaad
0aaaae

#1330000
1aaaae
bZZZZZZZZZZZZZZZZ aaaag
bZZ aaaah
zaaaai
zaaaaj
0aaaal
b11100110 aaaam
1aaaan
0aaaao
xaaaap

#1335000
0aaaae

#1340000
1aaaae

#1345000
0aaaae

#1350000
1aaaae
0aaaan

#1355000
0aaaae

#1360000
1aaaae
1aaaak
zaaaal
bZZZZZZZZ aaaam
zaaaan
zaaaao
0aaaap

#1365000
1aaaab
0aaaae

#1370000
0aaaaa
1aaaac
1aaaae
b1000100010001 aaaag
b0 aaaah
0aaaai
1aaaaj
0aaaak

#1375000
0aaaab
0aaaae

#1380000
1aaaae
bZZZZZZZZZZZZZZZZ aaaag
bZZ aaaah
zaaaai
zaaaaj
0aaaal
b11100111 aaaam
1aaaan
0aaaao
xaaaap

#1385000
0aaaae

#1390000
1aaaae

#1395000
0aaaae

#1400000
1aaaae
0aaaan

#1405000
0aaaae

#1410000
1aaaae
1aaaak
zaaaal
bZZZZZZZZ aaaam
zaaaan
zaaaao
0aaaap

#1415000
1aaaad
0aaaae

#1420000
1aaaaa
0aaaac
1aaaae
b1000100010001 aaaag
b0 aaaah
0aaaai
1aaaaj
0aaaak

#1425000
0aaaad
0aaaae

#1430000
1aaaae
bZZZZZZZZZZZZZZZZ aaaag
bZZ aaaah
zaaaai
zaaaaj
0aaaal
b11100111 aaaam
1aaaan
0aaaao
xaaaap

#1435000
0aaaae

#1440000
1aaaae

#1445000
0aaaae

#1450000
1aaaae
0aaaan

#1455000
0aaaae

#1460000
1aaaae
1aaaak
zaaaal
bZZZZZZZZ aaaam
zaaaan
zaaaao
0aaaap

#1465000
1aaaab
0aaaae

#1470000
0aaaaa
1aaaac
1aaaae
b1000100010001 aaaag
b0 aaaah
1aaaai
0aaaaj
0aaaak

#1475000
0aaaab
0aaaae

#1480000
1aaaae
bZZZZZZZZZZZZZZZZ aaaag
bZZ aaaah
zaaaai
zaaaaj
0aaaal
b11100111 aaaam
1aaaan
0aaaao
xaaaap

#1485000
0aaaae

#1490000
1aaaae

#1495000
0aaaae

#1500000
1aaaae
0aaaan

#1505000
0aaaae

#1510000
1aaaae
1aaaak
zaaaal
bZZZZZZZZ aaaam
zaaaan
zaaaao
0aaaap

#1515000
1aaaad
0aaaae

#1520000
1aaaaa
0aaaac
1aaaae
b1000100010001 aaaag
b0 aaaah
1aaaai
0aaaaj
0aaaak

#1525000
0aaaad
0aaaae

#1530000
1aaaae
bZZZZZZZZZZZZZZZZ aaaag
bZZ aaaah
zaaaai
zaaaaj
0aaaal
b11100111 aaaam
1aaaan
0aaaao
xaaaap

#1535000
0aaaae

#1540000
1aaaae

#1545000
0aaaae

#1550000
1aaaae
0aaaan

#1555000
0aaaae

#1560000
1aaaae
1aaaak
zaaaal
bZZZZZZZZ aaaam
zaaaan
zaaaao
0aaaap

#1565000
1aaaab
0aaaae

#1570000
0aaaaa
1aaaac
1aaaae
b1000100010001 aaaag
b0 aaaah
1aaaai
0aaaaj
0aaaak

#1575000
0aaaab
0aaaae

#1580000
1aaaae
bZZZZZZZZZZZZZZZZ aaaag
bZZ aaaah
zaaaai
zaaaaj
0aaaal
b11100111 aaaam
1aaaan
0aaaao
xaaaap

#1585000
0aaaae

#1590000
1aaaae

#1595000
0aaaae

#1600000
1aaaae
0aaaan

#1605000
0aaaae

#1610000
1aaaae
1aaaak
zaaaal
bZZZZZZZZ aaaam
zaaaan
zaaaao
0aaaap

#1615000
1aaaad
0aaaae

#1620000
1aaaaa
0aaaac
1aaaae
b1000100010001 aaaag
b0 aaaah
1aaaai
0aaaaj
0aaaak

#1625000
0aaaad
0aaaae

#1630000
1aaaae
bZZZZZZZZZZZZZZZZ aaaag
bZZ aaaah
zaaaai
zaaaaj
0aaaal
b11100111 aaaam
1aaaan
0aaaao
xaaaap

#1635000
0aaaae

#1640000
1aaaae

#1645000
0aaaae

#1650000
1aaaae
0aaaan

#1655000
0aaaae

#1660000
1aaaae
1aaaak
zaaaal
bZZZZZZZZ aaaam
zaaaan
zaaaao
0aaaap

#1665000
1aaaab
0aaaae

#1670000
0aaaaa
1aaaac
1aaaae
b1000100010001 aaaag
b0 aaaah
0aaaai
1aaaaj
0aaaak

#1675000
0aaaab
0aaaae

#1680000
1aaaae
bZZZZZZZZZZZZZZZZ aaaag
bZZ aaaah
zaaaai
zaaaaj
0aaaal
b11101000 aaaam
1aaaan
0aaaao
xaaaap

#1685000
0aaaae

#1690000
1aaaae

#1695000
0aaaae

#1700000
1aaaae
0aaaan

#1705000
0aaaae

#1710000
1aaaae
1aaaak
zaaaal
bZZZZZZZZ aaaam
zaaaan
zaaaao
0aaaap

#1715000
1aaaad
0aaaae

#1720000
1aaaaa
0aaaac
1aaaae
b1000100010001 aaaag
b0 aaaah
0aaaai
1aaaaj
0aaaak

#1725000
0aaaad
0aaaae

#1730000
1aaaae
bZZZZZZZZZZZZZZZZ aaaag
bZZ aaaah
zaaaai
zaaaaj
0aaaal
b11101000 aaaam
1aaaan
0aaaao
xaaaap

#1735000
0aaaae

#1740000
1aaaae

#1745000
0aaaae

#1750000
1aaaae
0aaaan

#1755000
0aaaae

#1760000
1aaaae
1aaaak
zaaaal
bZZZZZZZZ aaaam
zaaaan
zaaaao
0aaaap

#1765000
1aaaab
0aaaae

#1770000
0aaaaa
1aaaac
1aaaae
b1000100010001 aaaag
b0 aaaah
1aaaai
0aaaaj
0aaaak

#1775000
0aaaab
0aaaae

#1780000
1aaaae
bZZZZZZZZZZZZZZZZ aaaag
bZZ aaaah
zaaaai
zaaaaj
0aaaal
b11101000 aaaam
1aaaan
0aaaao
xaaaap

#1785000
0aaaae

#1790000
1aaaae

#1795000
0aaaae

#1800000
1aaaae
0aaaan

#1805000
0aaaae

#1810000
1aaaae
1aaaak
zaaaal
bZZZZZZZZ aaaam
zaaaan
zaaaao
0aaaap

#1815000
1aaaad
0aaaae

#1820000
0aaaac
1aaaae
b1000100010001 aaaag
b0 aaaah
1aaaai
0aaaaj
0aaaak

#1825000
0aaaad
0aaaae

#1830000
1aaaae
bZZZZZZZZZZZZZZZZ aaaag
bZZ aaaah
zaaaai
zaaaaj
0aaaal
b11101000 aaaam
1aaaan
0aaaao
xaaaap

#1835000
0aaaae

#1840000
1aaaae

#1845000
0aaaae

#1850000
1aaaae
0aaaan

#1855000
0aaaae

#1860000
1aaaae
1aaaak
zaaaal
bZZZZZZZZ aaaam
zaaaan
zaaaao
0aaaap

#1865000
0aaaae

#1870000
1aaaac
1aaaae
0aaaai
0aaaaj
0aaaak

#1875000
0aaaae

#1880000
1aaaae
zaaaai
zaaaaj
1aaaak

#1885000
1aaaad
0aaaae

#1890000
0aaaac
1aaaae
b1000100010001 aaaag
b0 aaaah
1aaaai
0aaaaj
0aaaak

#1895000
0aaaad
0aaaae

#1900000
1aaaae
bZZZZZZZZZZZZZZZZ aaaag
bZZ aaaah
zaaaai
zaaaaj
0aaaal
b11101000 aaaam
1aaaan
0aaaao
xaaaap

#1905000
0aaaae

#1910000
1aaaae

#1915000
0aaaae

#1920000
1aaaae
0aaaan

#1925000
0aaaae

#1930000
1aaaae
1aaaak
zaaaal
bZZZZZZZZ aaaam
zaaaan
zaaaao
0aaaap

#1935000
0aaaae

#1940000
1aaaac
1aaaae
0aaaai
0aaaaj
0aaaak

#1945000
0aaaae

#1950000
1aaaae
zaaaai
zaaaaj
1aaaak

#1955000
1aaaad
0aaaae

#1960000
0aaaac
1aaaae
b1000100010001 aaaag
b0 aaaah
0aaaai
1aaaaj
0aaaak

#1965000
0aaaad
0aaaae

#1970000
1aaaae
bZZZZZZZZZZZZZZZZ aaaag
bZZ aaaah
zaaaai
zaaaaj
0aaaal
b11101001 aaaam
1aaaan
0aaaao
xaaaap

#1975000
0aaaae

#1980000
1aaaae

#1985000
0aaaae

#1990000
1aaaae
0aaaan

#1995000
0aaaae

#2000000
1aaaae
1aaaak
zaaaal
bZZZZZZZZ aaaam
zaaaan
zaaaao
0aaaap

#2005000
0aaaae

#2010000
1aaaac
1aaaae
0aaaai
0aaaaj
0aaaak

#2015000
0aaaae

#2020000
1aaaae
zaaaai
zaaaaj
1aaaak

#2025000
1aaaad
0aaaae

#2030000
0aaaac
1aaaae
b1000100010001 aaaag
b0 aaaah
1aaaai
0aaaaj
0aaaak

#2035000
0aaaad
0aaaae

#2040000
1aaaae
bZZZZZZZZZZZZZZZZ aaaag
bZZ aaaah
zaaaai
zaaaaj
0aaaal
b11101001 aaaam
1aaaan
0aaaao
xaaaap

#2045000
0aaaae

#2050000
1aaaae

#2055000
0aaaae

#2060000
1aaaae
0aaaan

#2065000
0aaaae

#2070000
1aaaae
1aaaak
zaaaal
bZZZZZZZZ aaaam
zaaaan
zaaaao
0aaaap

#2075000
0aaaae

#2080000
1aaaac
1aaaae
0aaaai
0aaaaj
0aaaak

#2085000
0aaaae

#2090000
1aaaae
zaaaai
zaaaaj
1aaaak

#2095000
1aaaad
0aaaae

#2100000
0aaaac
1aaaae
b1000100010001 aaaag
b0 aaaah
1aaaai
0aaaaj
0aaaak

#2105000
0aaaad
0aaaae

#2110000
1aaaae
bZZZZZZZZZZZZZZZZ aaaag
bZZ aaaah
zaaaai
zaaaaj
0aaaal
b11101001 aaaam
1aaaan
0aaaao
xaaaap

#2115000
0aaaae

#2120000
1aaaae

#2125000
0aaaae

#2130000
1aaaae
0aaaan

#2135000
0aaaae

#2140000
1aaaae
1aaaak
zaaaal
bZZZZZZZZ aaaam
zaaaan
zaaaao
0aaaap

#2145000
0aaaae

#2150000
1aaaac
1aaaae
0aaaai
0aaaaj
0aaaak

#2155000
0aaaae

#2160000
1aaaae
zaaaai
zaaaaj
1aaaak

#2165000
1aaaad
0aaaae

#2170000
0aaaac
1aaaae
b1000100010001 aaaag
b0 aaaah
0aaaai
1aaaaj
0aaaak

#2175000
0aaaad
0aaaae

#2180000
1aaaae
bZZZZZZZZZZZZZZZZ aaaag
bZZ aaaah
zaaaai
zaaaaj
0aaaal
b11101010 aaaam
1aaaan
0aaaao
xaaaap

#2185000
0aaaae

#2190000
1aaaae

#2195000
0aaaae

#2200000
1aaaae
0aaaan

#2205000
0aaaae

#2210000
1aaaae
1aaaak
zaaaal
bZZZZZZZZ aaaam
zaaaan
zaaaao
0aaaap

#2215000
0aaaae

#2220000
1aaaac
1aaaae
0aaaai
0aaaaj
0aaaak

#2225000
0aaaae

#2230000
1aaaae
zaaaai
zaaaaj
1aaaak

#2235000
1aaaad
0aaaae

#2240000
0aaaac
1aaaae
b1000100010001 aaaag
b0 aaaah
1aaaai
0aaaaj
0aaaak

#2245000
0aaaad
0aaaae

#2250000
1aaaae
bZZZZZZZZZZZZZZZZ aaaag
bZZ aaaah
zaaaai
zaaaaj
0aaaal
b11101010 aaaam
1aaaan
0aaaao
xaaaap

#2255000
0aaaae

#2260000
1aaaae

#2265000
0aaaae

#2270000
1aaaae
0aaaan

#2275000
0aaaae

#2280000
1aaaae
1aaaak
zaaaal
bZZZZZZZZ aaaam
zaaaan
zaaaao
0aaaap

#2285000
0aaaae

#2290000
1aaaae
0aaaai
0aaaaj
0aaaak

#2295000
0aaaae

#2300000
1aaaae
zaaaai
zaaaaj
1aaaak

#2305000
0aaaae

#2310000
1aaaae
0aaaai
0aaaaj
0aaaak

#2315000
0aaaae

#2320000
1aaaae
zaaaai
zaaaaj
1aaaak

